(footprint "DMN26D0UFB4-7" (version 20221018) (generator pcbnew)
  (layer "F.Cu")
  (attr smd)
  (fp_text reference "REF**" (at 0 -0.5 unlocked) (layer "F.SilkS") hide
      (effects (font (size 1 1) (thickness 0.1)))
    (tstamp 9af4b3aa-f2e8-4cc1-83e6-ce61de9bbc17)
  )
  (fp_text value "DMN26D0UFB4-7" (at 0 1 unlocked) (layer "F.Fab")
      (effects (font (size 1 1) (thickness 0.15)))
    (tstamp 6008002b-b5cf-49e3-b788-0eda255838e1)
  )
  (fp_text user "${REFERENCE}" (at 0 2.5 unlocked) (layer "F.Fab")
      (effects (font (size 1 1) (thickness 0.15)))
    (tstamp a4ab4a78-4a10-4da1-ac14-64d990c761c1)
  )
)
