(footprint "IND_1050-WE-HCI_WRE" (version 20221018) (generator pcbnew)
  (layer "F.Cu")
  (tags "744325120 ")
  (attr smd)
  (fp_text reference "REF**" (at 0 0 unlocked) (layer "F.SilkS")
      (effects (font (size 1 1) (thickness 0.15)))
    (tstamp 00f46e1a-fa7e-42c1-b795-e6be4727f369)
  )
  (fp_text value "IND_1050-WE-HCI_WRE" (at 0 0 unlocked) (layer "F.Fab")
      (effects (font (size 1 1) (thickness 0.15)))
    (tstamp ef071683-ed9c-4c86-9072-96ca2e4039ba)
  )
  (fp_text user "${REFERENCE}" (at 0 0 unlocked) (layer "F.Fab")
      (effects (font (size 1 1) (thickness 0.15)))
    (tstamp b8e7e8ce-8190-4b47-88a5-4d7dcf4334e6)
  )
  (fp_line (start -5.8801 -5.4737) (end -5.8801 -1.67894)
    (stroke (width 0.1524) (type solid)) (layer "F.SilkS") (tstamp fa9dc3b4-3334-45bb-92b5-6e3c925eda58))
  (fp_line (start -5.8801 1.67894) (end -5.8801 5.4737)
    (stroke (width 0.1524) (type solid)) (layer "F.SilkS") (tstamp 24a90504-c32d-4ff9-852a-7367f58034b5))
  (fp_line (start -5.8801 5.4737) (end 5.8801 5.4737)
    (stroke (width 0.1524) (type solid)) (layer "F.SilkS") (tstamp 35c68c15-ff54-450c-b5ac-065d47af42c3))
  (fp_line (start 5.8801 -5.4737) (end -5.8801 -5.4737)
    (stroke (width 0.1524) (type solid)) (layer "F.SilkS") (tstamp 685d2fcd-1717-4424-aa64-592cbbb03379))
  (fp_line (start 5.8801 -1.67894) (end 5.8801 -5.4737)
    (stroke (width 0.1524) (type solid)) (layer "F.SilkS") (tstamp f396f912-f13d-4ba1-84e9-cbe17cf43083))
  (fp_line (start 5.8801 5.4737) (end 5.8801 1.67894)
    (stroke (width 0.1524) (type solid)) (layer "F.SilkS") (tstamp 8bbf68ab-2862-4c0c-a123-a5e6045645ce))
  (fp_line (start -6.1595 -1.6002) (end -6.0071 -1.6002)
    (stroke (width 0.1524) (type solid)) (layer "F.CrtYd") (tstamp 5e95519a-3def-495c-8d40-e951c4e2b3ef))
  (fp_line (start -6.1595 1.6002) (end -6.1595 -1.6002)
    (stroke (width 0.1524) (type solid)) (layer "F.CrtYd") (tstamp 160e3c9c-5e2b-477a-ad8e-05784de65b07))
  (fp_line (start -6.0071 -5.6007) (end 6.0071 -5.6007)
    (stroke (width 0.1524) (type solid)) (layer "F.CrtYd") (tstamp 42975fef-e2aa-4892-a2d5-58d738ebaeb2))
  (fp_line (start -6.0071 -1.6002) (end -6.0071 -5.6007)
    (stroke (width 0.1524) (type solid)) (layer "F.CrtYd") (tstamp 94916fcb-76b4-427b-adc7-c9a8a67afe00))
  (fp_line (start -6.0071 1.6002) (end -6.1595 1.6002)
    (stroke (width 0.1524) (type solid)) (layer "F.CrtYd") (tstamp 8110129d-69a6-4603-914d-43a92e6639d0))
  (fp_line (start -6.0071 1.6002) (end -6.0071 5.6007)
    (stroke (width 0.1524) (type solid)) (layer "F.CrtYd") (tstamp 83624384-ca0c-46f4-97ac-f6e37e7d4d71))
  (fp_line (start -6.0071 5.6007) (end 6.0071 5.6007)
    (stroke (width 0.1524) (type solid)) (layer "F.CrtYd") (tstamp 31025d86-198f-4ba1-8f0b-e5bdd3ea8cf1))
  (fp_line (start 6.0071 -5.6007) (end 6.0071 -1.6002)
    (stroke (width 0.1524) (type solid)) (layer "F.CrtYd") (tstamp 728a59f3-1de6-4ee2-9a9e-a537c7566904))
  (fp_line (start 6.0071 -1.6002) (end 6.1595 -1.6002)
    (stroke (width 0.1524) (type solid)) (layer "F.CrtYd") (tstamp 3f369f52-0c92-4e5f-8b73-54acffb4ee61))
  (fp_line (start 6.0071 1.6002) (end 6.1595 1.6002)
    (stroke (width 0.1524) (type solid)) (layer "F.CrtYd") (tstamp 640a939a-fdb0-4a7e-ad65-5f8ef7949bd7))
  (fp_line (start 6.0071 5.6007) (end 6.0071 1.6002)
    (stroke (width 0.1524) (type solid)) (layer "F.CrtYd") (tstamp 77eb0fc6-ff38-4d8a-b020-87d28fbe766c))
  (fp_line (start 6.1595 -1.6002) (end 6.1595 1.6002)
    (stroke (width 0.1524) (type solid)) (layer "F.CrtYd") (tstamp bd2ed17d-c6b2-42b7-b101-b6667f7f5347))
  (fp_line (start -5.7531 -5.3467) (end -5.7531 5.3467)
    (stroke (width 0.0254) (type solid)) (layer "F.Fab") (tstamp 121ea9e3-86cc-4f45-8ba2-ea54cbea8831))
  (fp_line (start -5.7531 -2.67335) (end -3.07975 -5.3467)
    (stroke (width 0.0254) (type solid)) (layer "F.Fab") (tstamp e77cbd88-0434-4510-bbe2-c7f264cbf4a6))
  (fp_line (start -5.7531 2.67335) (end -3.07975 5.3467)
    (stroke (width 0.0254) (type solid)) (layer "F.Fab") (tstamp 571e52d9-47d2-4d85-bde3-7bf26debf504))
  (fp_line (start -5.7531 5.3467) (end 5.7531 5.3467)
    (stroke (width 0.0254) (type solid)) (layer "F.Fab") (tstamp 31e70253-fcf2-4fa6-9c30-c87914126651))
  (fp_line (start 5.7531 -5.3467) (end -5.7531 -5.3467)
    (stroke (width 0.0254) (type solid)) (layer "F.Fab") (tstamp cfc3a183-822b-40ed-9236-a6b53d5b45f8))
  (fp_line (start 5.7531 5.3467) (end 5.7531 -5.3467)
    (stroke (width 0.0254) (type solid)) (layer "F.Fab") (tstamp 3b2837ad-4b9e-4924-80f1-60a0389c2cf2))
  (pad "1" smd rect (at -3.5814 0 90) (size 2.6924 4.6482) (layers "F.Cu" "F.Paste" "F.Mask") (tstamp b75d0e67-0584-4ba1-a3f1-994e654ae516))
  (pad "2" smd rect (at 3.5814 0 90) (size 2.6924 4.6482) (layers "F.Cu" "F.Paste" "F.Mask") (tstamp 6d00ed5c-d0a5-4605-9a4c-383af76d021d))
)
