(footprint "QFN-12-MPM3810A" (version 20211014) (generator pcbnew)
  (layer "F.Cu")
  (tedit 5EA4BFCF)
  (descr "QFN-12 (2.5mm x 3mm) for MPM3810A")
  (tags "QFN-12")
  (attr smd)
  (fp_text reference "REF**" (at 0.2 -2.9) (layer "F.SilkS")
    (effects (font (size 1 1) (thickness 0.15)))
    (tstamp 46771041-a444-47d3-99f3-8f004e73e894)
  )
  (fp_text value "QFN-12-MPM3810A" (at 0 3.5) (layer "F.Fab")
    (effects (font (size 1 1) (thickness 0.15)))
    (tstamp 65086432-5bce-4c75-9776-fe517bdef393)
  )
  (fp_text user "${REFERENCE}" (at -0.5 2.2) (layer "F.Fab")
    (effects (font (size 0.6 0.6) (thickness 0.125)))
    (tstamp 070b4fc1-194c-4ede-ae6a-04e8fcd60fbe)
  )
  (fp_line (start -1.7 1.6) (end 1.7 1.6) (layer "F.SilkS") (width 0.15) (tstamp 94a34aba-9d59-4f13-b120-a2dd987504c7))
  (fp_line (start -0.7 -2.1) (end 1.7 -2.1) (layer "F.SilkS") (width 0.15) (tstamp 9d3b0ef0-8ab0-40db-a2f0-b7aed184eb63))
  (fp_line (start 1.7 -1.9) (end 1.7 1.4) (layer "F.CrtYd") (width 0.05) (tstamp 300745c4-ae3c-4c8d-b6d6-be36feb936b5))
  (fp_line (start -1.7 -1.9) (end -1.7 1.4) (layer "F.CrtYd") (width 0.05) (tstamp 67baf303-2465-4ef0-837b-7bb0d85f7fc5))
  (fp_line (start -1.7 1.4) (end 1.7 1.4) (layer "F.CrtYd") (width 0.05) (tstamp c629ed4b-e1ab-4996-80ee-031b731151a2))
  (fp_line (start -1.7 -1.9) (end 1.7 -1.9) (layer "F.CrtYd") (width 0.05) (tstamp db5bc58e-2616-4570-b435-5d7c9f1d68a5))
  (fp_line (start 1.7 1.4) (end -1.7 1.4) (layer "F.Fab") (width 0.15) (tstamp 0199dd26-2a7f-4de2-82e4-8a8b14e06949))
  (fp_line (start -1.7 -1.9) (end 1.7 -1.9) (layer "F.Fab") (width 0.15) (tstamp 0c80f386-ccd6-4a58-bc89-21fc6e525141))
  (fp_line (start -1.7 1.4) (end -1.7 -1.9) (layer "F.Fab") (width 0.15) (tstamp 4ca7655b-417b-4ace-abc4-c0569df5aa52))
  (fp_line (start 1.7 -1.9) (end 1.7 1.4) (layer "F.Fab") (width 0.15) (tstamp 6567a694-2ecb-40b4-9e0c-096b601bcc10))
  (pad "" smd rect (at 0.775 0.675) (size 0.55 1.2) (layers "F.Cu" "F.Paste" "F.Mask") (tstamp 93eb59ed-3c36-461d-ab5a-b91735f32b13))
  (pad "" smd rect (at -0.775 0.675) (size 0.55 1.2) (layers "F.Cu" "F.Paste" "F.Mask") (tstamp eafb457b-eda4-44d8-9032-9d97889ef152))
  (pad "1" smd rect (at -1.025 -0.7) (size 1.05 0.2) (layers "F.Cu" "F.Paste" "F.Mask") (tstamp dc309ae4-3ea8-4f1f-91d6-aa3abd80ce44))
  (pad "2" smd rect (at -1.025 -0.3) (size 1.05 0.2) (layers "F.Cu" "F.Paste" "F.Mask") (tstamp b9bd4cbf-9374-4c9b-b944-53b605c1e2a3))
  (pad "3" smd rect (at -1.025 0.35) (size 1.05 0.25) (layers "F.Cu" "F.Paste" "F.Mask") (tstamp 6f95232a-c5e3-4b33-b710-fdc9c4703dd3))
  (pad "4" smd rect (at -1.025 1) (size 1.05 0.25) (layers "F.Cu" "F.Paste" "F.Mask") (tstamp 4257cd63-2f4c-416b-b269-f961b1d928e5))
  (pad "5" smd rect (at 1.025 1) (size 1.05 0.25) (layers "F.Cu" "F.Paste" "F.Mask") (tstamp a094e801-8aa3-4bde-ab09-c9c863c2b9b4))
  (pad "6" smd rect (at 1.025 0.35) (size 1.05 0.25) (layers "F.Cu" "F.Paste" "F.Mask") (tstamp bb7c2736-22ff-45a7-bf71-4007667f5c79))
  (pad "7" smd rect (at 1.025 -0.3) (size 1.05 0.2) (layers "F.Cu" "F.Paste" "F.Mask") (tstamp b1c56b0a-979b-4e71-b7f2-4949ac85ff21))
  (pad "8" smd rect (at 1.025 -0.7) (size 1.05 0.2) (layers "F.Cu" "F.Paste" "F.Mask") (tstamp d5874640-a97d-4767-bee6-6b7f66e2e95c))
  (pad "9" smd rect (at 0.6 -1.45) (size 0.2 0.7) (layers "F.Cu" "F.Paste" "F.Mask") (tstamp eec6cb55-eccd-4f11-90af-52f032624e70))
  (pad "10" smd rect (at 0.2 -1.45) (size 0.2 0.7) (layers "F.Cu" "F.Paste" "F.Mask") (tstamp bb5a87b3-266b-4ba9-8b44-3e89841a520c))
  (pad "11" smd rect (at -0.2 -1.45) (size 0.2 0.7) (layers "F.Cu" "F.Paste" "F.Mask") (tstamp 5dd21dbd-cc48-4e08-b786-ec422b486126))
  (pad "12" smd rect (at -0.6 -1.45) (size 0.2 0.7) (layers "F.Cu" "F.Paste" "F.Mask") (tstamp 02351454-5984-4d0a-9ca2-d32d76d2428c))
  (zone (net 0) (net_name "") (layers "F.Cu" "F.SilkS") (tstamp ea0ce9f2-db4c-4fba-9611-8cf5dda74f36) (hatch edge 0.508)
    (connect_pads (clearance 0))
    (min_thickness 0.254)
    (keepout (tracks not_allowed) (vias not_allowed) (pads not_allowed) (copperpour allowed) (footprints allowed))
    (fill (thermal_gap 0.508) (thermal_bridge_width 0.508))
    (polygon
      (pts
        (xy 0.46 -0.53)
        (xy -0.46 -0.53)
        (xy -0.46 -1.07)
        (xy 0.46 -1.07)
      )
    )
  )
  (model "${KICAD6_3DMODEL_DIR}/Package_DFN_QFN.3dshapes/DFN-14-1EP_3x3mm_P0.4mm_EP1.78x2.35mm.wrl"
    (offset (xyz 0 0 0))
    (scale (xyz 1 1 1))
    (rotate (xyz 0 0 0))
  )
)
